{
  "project_info": {
    "project_number": "432267337626",
    "project_id": "eventapp-4899a",
    "storage_bucket": "eventapp-4899a.appspot.com"
  },
  "client": [
    {
      "client_info": {
        "mobilesdk_app_id": "1:432267337626:android:8acd3c88f6189aff682423",
        "android_client_info": {
          "package_name": "aji.dev.eventapp"
        }
      },
      "oauth_client": [
        {
          "client_id": "432267337626-2f1gdcvpg83soerjfb0j350sk8o3ee4u.apps.googleusercontent.com",
          "client_type": 1,
          "android_info": {
            "package_name": "aji.dev.eventapp",
            "certificate_hash": "6aa31fb1633ccaea979d8599b86794177d0b87f8"
          }
        },
        {
          "client_id": "432267337626-t7bfengp9org44sp82e7169rmuin6vtj.apps.googleusercontent.com",
          "client_type": 3
        }
      ],
      "api_key": [
        {
          "current_key": "AIzaSyAp8FBy1nBvDwV_zpZl2g0pErIRlpDoplw"
        }
      ],
      "services": {
        "appinvite_service": {
          "other_platform_oauth_client": [
            {
              "client_id": "432267337626-t7bfengp9org44sp82e7169rmuin6vtj.apps.googleusercontent.com",
              "client_type": 3
            }
          ]
        }
      }
    }
  ],
  "configuration_version": "1"
}